Joaquin Ramirez - Tidy Tuesday Exercise
…
Conclusion:

The American Idol data reveals that out of the 18 seasons analyzed, 7 winners were female and 11 winners were male. This suggests that males have historically been more likely to win the competition compared to females.

Contestants

# Count the number of contestants by season and gender
contestants_by_gender <- finalists %>%
  group_by(season, contestant_gender) %>%
  summarize(count = n(), .groups = 'drop')

# Display the summarized data
print(contestants_by_gender)

# A tibble: 37 × 3
   season contestant_gender count
    <dbl> <chr>             <int>
 1      1 Female                5
 2      1 Male                  5
 3      2 Female                6
 4      2 Male                  6
 5      3 Female                8
 6      3 Male                  4
 7      4 Female                6
 8      4 Male                  6
 9      5 Female                5
10      5 Male                  3
# ℹ 27 more rows
…
